rtl/mips_cpu_bus_tb.vcd
$date
	Thu Dec 10 23:54:05 2020
$end
$version
	Icarus Verilog
$end
$timescale
	10ps
$end
$scope module mips_cpu_bus_tb $end
$var wire 32 ! writedata [31:0] $end
$var wire 1 " write $end
$var wire 1 # waitrequest $end
$var wire 32 $ register_v0 [31:0] $end
$var wire 32 % readdata [31:0] $end
$var wire 1 & read $end
$var wire 4 ' byteenable [3:0] $end
$var wire 32 ( address [31:0] $end
$var wire 1 ) active $end
$var reg 1 * clk $end
$var reg 1 + reset $end
$scope module cpuInst $end
$var wire 1 , and_result $end
$var wire 1 * clk $end
$var wire 1 + reset $end
$var wire 32 - writedata [31:0] $end
$var wire 1 . zero $end
$var wire 5 / write_reg [4:0] $end
$var wire 32 0 write_data [31:0] $end
$var wire 1 " write $end
$var wire 1 # waitrequest $end
$var wire 32 1 shift_out [31:0] $end
$var wire 1 2 regwrite $end
$var wire 1 3 regtojump $end
$var wire 32 4 register_v0 [31:0] $end
$var wire 1 5 regdst $end
$var wire 32 6 readdata [31:0] $end
$var wire 32 7 read_data2 [31:0] $end
$var wire 32 8 read_data1 [31:0] $end
$var wire 1 & read $end
$var wire 1 9 pcwrite $end
$var wire 1 : pctoadd $end
$var wire 32 ; pc_out [31:0] $end
$var wire 32 < pc_in [31:0] $end
$var wire 1 = memtoreg $end
$var wire 32 > loadresult [31:0] $end
$var wire 1 ? loadimmed $end
$var wire 1 @ link $end
$var wire 1 A jump $end
$var wire 1 B inwrite $end
$var wire 32 C instr [31:0] $end
$var wire 32 D extend_out [31:0] $end
$var wire 1 E branch $end
$var wire 32 F alu_b [31:0] $end
$var wire 32 G address [31:0] $end
$var wire 32 H add_out [31:0] $end
$var wire 32 I ALU_out [31:0] $end
$var wire 1 J ALUSrc $end
$var wire 4 K ALUOp [3:0] $end
$var wire 4 L ALUCtrl [3:0] $end
$var reg 1 ) active $end
$var reg 4 M byteenable [3:0] $end
$var reg 32 N instr_reg [31:0] $end
$var reg 4 O state [3:0] $end
$scope module add_alu_0 $end
$var wire 32 P shift_out [31:0] $end
$var wire 32 Q pc_out [31:0] $end
$var reg 32 R out [31:0] $end
$upscope $end
$scope module alu_0 $end
$var wire 32 S b [31:0] $end
$var wire 1 . zero $end
$var wire 4 T alu_control [3:0] $end
$var wire 32 U a [31:0] $end
$var reg 32 V result [31:0] $end
$upscope $end
$scope module alu_ctrl_0 $end
$var wire 5 W BranchzFunc [4:0] $end
$var wire 6 X FuncCode [5:0] $end
$var wire 4 Y ALUOp [3:0] $end
$var reg 4 Z ALUCtrl [3:0] $end
$var reg 4 [ BranchCtrl [3:0] $end
$var reg 4 \ func [3:0] $end
$upscope $end
$scope module control_0 $end
$var wire 5 ] branchFunc [4:0] $end
$var wire 6 ^ fun [5:0] $end
$var wire 6 _ opcode [5:0] $end
$var wire 4 ` state [3:0] $end
$var wire 1 # waitrequest $end
$var reg 4 a ALUOp [3:0] $end
$var reg 1 J ALUSrc $end
$var reg 1 b arith $end
$var reg 1 E branch $end
$var reg 1 c branchlink $end
$var reg 1 d decode $end
$var reg 1 e exec1 $end
$var reg 1 f exec2 $end
$var reg 1 g fetch $end
$var reg 1 h halt $end
$var reg 1 B inwrite $end
$var reg 1 A jump $end
$var reg 1 @ link $end
$var reg 1 ? loadimmed $end
$var reg 1 & memread $end
$var reg 1 = memtoreg $end
$var reg 1 " memwrite $end
$var reg 1 : pctoadd $end
$var reg 1 9 pcwrite $end
$var reg 1 5 regdst $end
$var reg 1 i regjump $end
$var reg 1 3 regtojump $end
$var reg 1 2 regwrite $end
$upscope $end
$scope module pc_0 $end
$var wire 1 * clk $end
$var wire 32 j pc_in [31:0] $end
$var wire 1 9 pcwrite $end
$var wire 1 + reset $end
$var reg 32 k pc_out [31:0] $end
$upscope $end
$scope module reg_file_0 $end
$var wire 1 * clk $end
$var wire 5 l read_index1 [4:0] $end
$var wire 5 m read_index2 [4:0] $end
$var wire 32 n register_v0 [31:0] $end
$var wire 1 + reset $end
$var wire 32 o write_data [31:0] $end
$var wire 1 2 write_enable $end
$var wire 5 p write_reg [4:0] $end
$var wire 32 q read_data2 [31:0] $end
$var wire 32 r read_data1 [31:0] $end
$scope begin $ivl_for_loop0 $end
$var integer 32 s i [31:0] $end
$upscope $end
$upscope $end
$upscope $end
$scope module ramInst $end
$var wire 32 t addressin [31:0] $end
$var wire 4 u byteenable [3:0] $end
$var wire 1 * clk $end
$var wire 1 & read $end
$var wire 1 " write $end
$var wire 32 v writedata [31:0] $end
$var wire 32 w address [31:0] $end
$var reg 32 x readdata [31:0] $end
$var reg 1 # waitrequest $end
$var integer 32 y waitcycle [31:0] $end
$scope begin $unm_blk_53 $end
$var integer 32 z i [31:0] $end
$upscope $end
$upscope $end
$upscope $end
$enddefinitions $end
#0
$dumpvars
b1000000000000 z
b0 y
b0 x
bx w
bx v
bx u
bx t
b0 s
bx r
bx q
bx p
bx o
bx n
bx m
bx l
bx k
bx j
xi
1h
0g
0f
0e
0d
xc
xb
bx a
b0 `
bx _
bx ^
bx ]
b0 \
b0 [
b0 Z
bx Y
bx X
bx W
bx V
bx U
b0 T
bx S
bx R
bx Q
b0xxxxxxxxxxxxxxxx00 P
b0 O
bx N
bx M
b0 L
bx K
xJ
bx I
bx H
bx G
bx F
xE
b0xxxxxxxxxxxxxxxx D
bx C
xB
xA
x@
x?
bx0000000000000000 >
x=
bx <
bx ;
x:
09
bx 8
bx 7
b0 6
x5
bx 4
x3
x2
b0xxxxxxxxxxxxxxxx00 1
bx 0
bx /
x.
bx -
x,
1+
0*
0)
bx (
bx '
x&
b0 %
bx $
0#
x"
bx !
$end
#1000
1#
b10111111110000000000000000000100 <
b10111111110000000000000000000100 j
b0 w
0,
b10111111110000000000000000000000 (
b10111111110000000000000000000000 G
b10111111110000000000000000000000 t
b10 L
b10 T
b10 Z
0@
03
1:
0B
02
0=
05
0"
1&
0E
0A
0J
b0 K
b0 Y
b0 a
1g
0h
b11111111111111111111111110010001 $
b11111111111111111111111110010001 4
b11111111111111111111111110010001 n
b10111111110000000000000000000000 ;
b10111111110000000000000000000000 Q
b10111111110000000000000000000000 k
1)
b1 O
b1 `
0+
b100000 s
1*
#2000
0*
#3000
0#
b100100001000010000000000000000 %
b100100001000010000000000000000 6
b100100001000010000000000000000 x
1*
#4000
0*
#5000
b11111111111111111111111100100010 0
b11111111111111111111111100100010 o
0.
b11111111111111111111111100100010 I
b11111111111111111111111100100010 V
b1 /
b1 p
b11111111111111111111111110010001 F
b11111111111111111111111110010001 S
b10111111110000000000000000000000 H
b10111111110000000000000000000000 R
b11111111111111111111111110010001 8
b11111111111111111111111110010001 U
b11111111111111111111111110010001 r
b11111111111111111111111110010001 !
b11111111111111111111111110010001 -
b11111111111111111111111110010001 v
b11111111111111111111111110010001 7
b11111111111111111111111110010001 q
b0 1
b0 P
b1011 [
0c
0i
0b
b1 l
b1 m
b0 D
b0 X
b1 W
b0 >
b1 ]
b0 ^
b1001 _
b100100001000010000000000000000 C
1B
0&
1d
0g
b10 O
b10 `
1*
#6000
0*
#7000
b11111111111111111111111110010001 0
b11111111111111111111111110010001 o
b111111100100 w
b11111111111111111111111110010001 I
b11111111111111111111111110010001 V
b11111111111111111111111110010001 (
b11111111111111111111111110010001 G
b11111111111111111111111110010001 t
b0 F
b0 S
0:
0B
1J
1e
0d
b100100001000010000000000000000 N
b11 O
b11 `
1*
#8000
0*
#9000
12
19
1f
0e
b100 O
b100 `
1*
#10000
0*
#11000
1#
b11111111111111111111111100100010 0
b11111111111111111111111100100010 o
b1 w
b11111111111111111111111100100010 I
b11111111111111111111111100100010 V
b10111111110000000000000000001000 <
b10111111110000000000000000001000 j
b10111111110000000000000000000100 (
b10111111110000000000000000000100 G
b10111111110000000000000000000100 t
b11111111111111111111111110010001 F
b11111111111111111111111110010001 S
1:
02
1&
0J
09
0f
1g
b10111111110000000000000000000100 H
b10111111110000000000000000000100 R
b1 O
b1 `
b10111111110000000000000000000100 ;
b10111111110000000000000000000100 Q
b10111111110000000000000000000100 k
1*
#12000
0*
#13000
0#
b100001010110000000011111111 %
b100001010110000000011111111 6
b100001010110000000011111111 x
1*
#14000
0*
#15000
b1011 /
b1011 p
b10111111110000000000010000000000 H
b10111111110000000000010000000000 R
b1111111100 1
b1111111100 P
b0 [
1c
b1011 m
b11111111 D
b111111 X
b1011 W
b111111110000000000000000 >
b1011 ]
b111111 ^
b1 _
b100001010110000000011111111 C
1B
0&
1d
0g
b10 O
b10 `
1*
#16000
0*
#17000
b100100 w
b10111111110000000000000000001000 0
b10111111110000000000000000001000 o
b11111 /
b11111 p
b10010001 I
b10010001 V
b10010001 (
b10010001 G
b10010001 t
b11111111 F
b11111111 S
b0 L
b0 T
b0 Z
1@
0:
0B
1E
1J
b1011 K
b1011 Y
b1011 a
1e
0d
b11 O
b11 `
b100001010110000000011111111 N
1*
#18000
0*
#19000
12
19
1f
0e
b100 O
b100 `
1*
#20000
0*
#21000
1#
b10 w
b1011 /
b1011 p
b11111111111111111111111100100010 0
b11111111111111111111111100100010 o
b10111111110000000000000000001100 <
b10111111110000000000000000001100 j
b11111111111111111111111100100010 I
b11111111111111111111111100100010 V
b10111111110000000000000000001000 (
b10111111110000000000000000001000 G
b10111111110000000000000000001000 t
b11111111111111111111111110010001 F
b11111111111111111111111110010001 S
b10 L
b10 T
b10 Z
b10111111110000000000010000000100 H
b10111111110000000000010000000100 R
0@
1:
02
1&
0E
0J
b0 K
b0 Y
b0 a
09
0f
1g
b10111111110000000000000000001000 ;
b10111111110000000000000000001000 Q
b10111111110000000000000000001000 k
b1 O
b1 `
1*
#22000
0*
#23000
0#
b100100001000010000000000000001 %
b100100001000010000000000000001 6
b100100001000010000000000000001 x
1*
#24000
0*
#25000
b1 /
b1 p
b10111111110000000000000000001100 H
b10111111110000000000000000001100 R
b100 1
b100 P
b1011 [
0c
b1 m
b1 D
b1 X
b1 W
b10000000000000000 >
b1 ]
b1 ^
b1001 _
b100100001000010000000000000001 C
1B
0&
1d
0g
b10 O
b10 `
1*
#26000
0*
#27000
b11111111111111111111111110010010 0
b11111111111111111111111110010010 o
b111111100100 w
b11111111111111111111111110010010 I
b11111111111111111111111110010010 V
b11111111111111111111111110010010 (
b11111111111111111111111110010010 G
b11111111111111111111111110010010 t
b1 F
b1 S
0:
0B
1J
1e
0d
b100100001000010000000000000001 N
b11 O
b11 `
1*
#28000
0*
#29000
12
19
1f
0e
b100 O
b100 `
1*
#30000
0*
#31000
1#
b11 w
b11111111111111111111111100100100 0
b11111111111111111111111100100100 o
b10111111110000000000000000010000 <
b10111111110000000000000000010000 j
b11111111111111111111111110010010 F
b11111111111111111111111110010010 S
b10111111110000000000000000001100 (
b10111111110000000000000000001100 G
b10111111110000000000000000001100 t
1:
02
1&
0J
09
0f
1g
b11111111111111111111111100100100 I
b11111111111111111111111100100100 V
b10111111110000000000000000010000 H
b10111111110000000000000000010000 R
b11111111111111111111111110010010 8
b11111111111111111111111110010010 U
b11111111111111111111111110010010 r
b11111111111111111111111110010010 !
b11111111111111111111111110010010 -
b11111111111111111111111110010010 v
b11111111111111111111111110010010 7
b11111111111111111111111110010010 q
b1 O
b1 `
b10111111110000000000000000001100 ;
b10111111110000000000000000001100 Q
b10111111110000000000000000001100 k
b11111111111111111111111110010010 $
b11111111111111111111111110010010 4
b11111111111111111111111110010010 n
1*
#32000
0*
#33000
0#
1*
#34000
0*
#35000
1B
0&
1d
0g
b10 O
b10 `
1*
#36000
0*
#37000
b11111111111111111111111110010011 0
b11111111111111111111111110010011 o
b111111100100 w
b11111111111111111111111110010011 I
b11111111111111111111111110010011 V
b11111111111111111111111110010011 (
b11111111111111111111111110010011 G
b11111111111111111111111110010011 t
b1 F
b1 S
0:
0B
1J
1e
0d
b11 O
b11 `
1*
#38000
0*
#39000
12
19
1f
0e
b100 O
b100 `
1*
#40000
0*
#41000
1#
b11111111111111111111111100100110 0
b11111111111111111111111100100110 o
b100 w
b11111111111111111111111100100110 I
b11111111111111111111111100100110 V
b10111111110000000000000000010100 <
b10111111110000000000000000010100 j
b10111111110000000000000000010000 (
b10111111110000000000000000010000 G
b10111111110000000000000000010000 t
b11111111111111111111111110010011 F
b11111111111111111111111110010011 S
b11111111111111111111111110010011 8
b11111111111111111111111110010011 U
b11111111111111111111111110010011 r
b11111111111111111111111110010011 !
b11111111111111111111111110010011 -
b11111111111111111111111110010011 v
b11111111111111111111111110010011 7
b11111111111111111111111110010011 q
b10111111110000000000000000010100 H
b10111111110000000000000000010100 R
1:
02
1&
0J
09
0f
1g
b11111111111111111111111110010011 $
b11111111111111111111111110010011 4
b11111111111111111111111110010011 n
b10111111110000000000000000010000 ;
b10111111110000000000000000010000 Q
b10111111110000000000000000010000 k
b1 O
b1 `
1*
#42000
0*
#43000
0#
b100100001000010000000100010001 %
b100100001000010000000100010001 6
b100100001000010000000100010001 x
1*
#44000
0*
#45000
b10111111110000000000010001010100 H
b10111111110000000000010001010100 R
b10001000100 1
b10001000100 P
b100010001 D
b10001 X
b1000100010000000000000000 >
b10001 ^
b100100001000010000000100010001 C
1B
0&
1d
0g
b10 O
b10 `
1*
#46000
0*
#47000
b10100100 0
b10100100 o
b101001 w
b10100100 I
b10100100 V
b10100100 (
b10100100 G
b10100100 t
b100010001 F
b100010001 S
0:
0B
1J
1e
0d
b100100001000010000000100010001 N
b11 O
b11 `
1*
#48000
0*
#49000
12
19
1f
0e
b100 O
b100 `
1*
#50000
0*
#51000
1#
b101 w
b101001000 0
b101001000 o
b10111111110000000000000000011000 <
b10111111110000000000000000011000 j
b10100100 F
b10100100 S
b10111111110000000000000000010100 (
b10111111110000000000000000010100 G
b10111111110000000000000000010100 t
1:
02
1&
0J
09
0f
1g
b101001000 I
b101001000 V
b10111111110000000000010001011000 H
b10111111110000000000010001011000 R
b10100100 8
b10100100 U
b10100100 r
b10100100 !
b10100100 -
b10100100 v
b10100100 7
b10100100 q
b1 O
b1 `
b10111111110000000000000000010100 ;
b10111111110000000000000000010100 Q
b10111111110000000000000000010100 k
b10100100 $
b10100100 4
b10100100 n
1*
#52000
0*
#53000
0#
b100001010110000000000000010 %
b100001010110000000000000010 6
b100001010110000000000000010 x
1*
#54000
0*
#55000
b110101 0
b110101 o
b110101 I
b110101 V
b1011 /
b1011 p
b11111111111111111111111110010001 F
b11111111111111111111111110010001 S
b10111111110000000000000000011100 H
b10111111110000000000000000011100 R
b11111111111111111111111110010001 !
b11111111111111111111111110010001 -
b11111111111111111111111110010001 v
b11111111111111111111111110010001 7
b11111111111111111111111110010001 q
b1000 1
b1000 P
b0 [
1c
b1011 m
b10 D
b10 X
b1011 W
b100000000000000000 >
b1011 ]
b10 ^
b1 _
b100001010110000000000000010 C
1B
0&
1d
0g
b10 O
b10 `
1*
#56000
0*
#57000
b10111111110000000000000000011100 <
b10111111110000000000000000011100 j
b0 w
1,
b10111111110000000000000000011000 0
b10111111110000000000000000011000 o
b11111 /
b11111 p
1.
b0 I
b0 V
b0 (
b0 G
b0 t
b10 F
b10 S
b0 L
b0 T
b0 Z
1@
0:
0B
1E
1J
b1011 K
b1011 Y
b1011 a
1e
0d
b11 O
b11 `
b100001010110000000000000010 N
1*
#58000
0*
#59000
12
19
1f
0e
b100 O
b100 `
1*
#60000
0*
#61000
1#
b111 w
b10111111110000000000000000100000 <
b10111111110000000000000000100000 j
b1011 /
b1011 p
b110101 0
b110101 o
0.
b110101 I
b110101 V
b10111111110000000000000000011100 (
b10111111110000000000000000011100 G
b10111111110000000000000000011100 t
0,
b11111111111111111111111110010001 F
b11111111111111111111111110010001 S
b10 L
b10 T
b10 Z
b10111111110000000000000000100100 H
b10111111110000000000000000100100 R
0@
1:
02
1&
0E
0J
b0 K
b0 Y
b0 a
09
0f
1g
b10111111110000000000000000011100 ;
b10111111110000000000000000011100 Q
b10111111110000000000000000011100 k
b1 O
b1 `
1*
#62000
0*
#63000
0#
b100100001000010000000000000001 %
b100100001000010000000000000001 6
b100100001000010000000000000001 x
1*
#64000
0*
#65000
b101001000 0
b101001000 o
b101001000 I
b101001000 V
b1 /
b1 p
b10100100 F
b10100100 S
b10111111110000000000000000100000 H
b10111111110000000000000000100000 R
b10100100 !
b10100100 -
b10100100 v
b10100100 7
b10100100 q
b100 1
b100 P
b1011 [
0c
b1 m
b1 D
b1 X
b1 W
b10000000000000000 >
b1 ]
b1 ^
b1001 _
b100100001000010000000000000001 C
1B
0&
1d
0g
b10 O
b10 `
1*
#66000
0*
#67000
b10100101 0
b10100101 o
b101001 w
b10100101 I
b10100101 V
b10100101 (
b10100101 G
b10100101 t
b1 F
b1 S
0:
0B
1J
1e
0d
b100100001000010000000000000001 N
b11 O
b11 `
1*
#68000
0*
#69000
12
19
1f
0e
b100 O
b100 `
1*
#70000
0*
#71000
1#
b1000 w
b101001010 0
b101001010 o
b10111111110000000000000000100100 <
b10111111110000000000000000100100 j
b10100101 F
b10100101 S
b10111111110000000000000000100000 (
b10111111110000000000000000100000 G
b10111111110000000000000000100000 t
1:
02
1&
0J
09
0f
1g
b101001010 I
b101001010 V
b10111111110000000000000000100100 H
b10111111110000000000000000100100 R
b10100101 8
b10100101 U
b10100101 r
b10100101 !
b10100101 -
b10100101 v
b10100101 7
b10100101 q
b1 O
b1 `
b10111111110000000000000000100000 ;
b10111111110000000000000000100000 Q
b10111111110000000000000000100000 k
b10100101 $
b10100101 4
b10100101 n
1*
#72000
0*
#73000
0#
1*
#74000
0*
#75000
1B
0&
1d
0g
b10 O
b10 `
1*
#76000
0*
#77000
b10100110 0
b10100110 o
b101001 w
b10100110 I
b10100110 V
b10100110 (
b10100110 G
b10100110 t
b1 F
b1 S
0:
0B
1J
1e
0d
b11 O
b11 `
1*
#78000
0*
#79000
12
19
1f
0e
b100 O
b100 `
1*
#80000
0*
#81000
1#
b101001100 0
b101001100 o
b1001 w
b101001100 I
b101001100 V
b10111111110000000000000000101000 <
b10111111110000000000000000101000 j
b10111111110000000000000000100100 (
b10111111110000000000000000100100 G
b10111111110000000000000000100100 t
b10100110 F
b10100110 S
b10100110 8
b10100110 U
b10100110 r
b10100110 !
b10100110 -
b10100110 v
b10100110 7
b10100110 q
b10111111110000000000000000101000 H
b10111111110000000000000000101000 R
1:
02
1&
0J
09
0f
1g
b10100110 $
b10100110 4
b10100110 n
b10111111110000000000000000100100 ;
b10111111110000000000000000100100 Q
b10111111110000000000000000100100 k
b1 O
b1 `
1*
#82000
0*
#83000
0#
1*
#84000
0*
#85000
1B
0&
1d
0g
b10 O
b10 `
1*
#86000
0*
#87000
b10100111 0
b10100111 o
b101001 w
b10100111 I
b10100111 V
b10100111 (
b10100111 G
b10100111 t
b1 F
b1 S
0:
0B
1J
1e
0d
b11 O
b11 `
1*
#88000
0*
#89000
12
19
1f
0e
b100 O
b100 `
1*
#90000
0*
#91000
1#
b1010 w
b101001110 0
b101001110 o
b10111111110000000000000000101100 <
b10111111110000000000000000101100 j
b10100111 F
b10100111 S
b10111111110000000000000000101000 (
b10111111110000000000000000101000 G
b10111111110000000000000000101000 t
1:
02
1&
0J
09
0f
1g
b101001110 I
b101001110 V
b10111111110000000000000000101100 H
b10111111110000000000000000101100 R
b10100111 8
b10100111 U
b10100111 r
b10100111 !
b10100111 -
b10100111 v
b10100111 7
b10100111 q
b1 O
b1 `
b10111111110000000000000000101000 ;
b10111111110000000000000000101000 Q
b10111111110000000000000000101000 k
b10100111 $
b10100111 4
b10100111 n
1*
#92000
0*
#93000
0#
1*
#94000
0*
#95000
1B
0&
1d
0g
b10 O
b10 `
1*
#96000
0*
#97000
b10101000 0
b10101000 o
b101010 w
b10101000 I
b10101000 V
b10101000 (
b10101000 G
b10101000 t
b1 F
b1 S
0:
0B
1J
1e
0d
b11 O
b11 `
1*
#98000
0*
#99000
12
19
1f
0e
b100 O
b100 `
1*
#100000
0*
#101000
1#
b101010000 0
b101010000 o
b1011 w
b101010000 I
b101010000 V
b10111111110000000000000000110000 <
b10111111110000000000000000110000 j
b10111111110000000000000000101100 (
b10111111110000000000000000101100 G
b10111111110000000000000000101100 t
b10101000 F
b10101000 S
b10101000 8
b10101000 U
b10101000 r
b10101000 !
b10101000 -
b10101000 v
b10101000 7
b10101000 q
b10111111110000000000000000110000 H
b10111111110000000000000000110000 R
1:
02
1&
0J
09
0f
1g
b10101000 $
b10101000 4
b10101000 n
b10111111110000000000000000101100 ;
b10111111110000000000000000101100 Q
b10111111110000000000000000101100 k
b1 O
b1 `
1*
#102000
0*
#103000
0#
1*
#104000
0*
#105000
1B
0&
1d
0g
b10 O
b10 `
1*
#106000
0*
#107000
b10101001 0
b10101001 o
b101010 w
b10101001 I
b10101001 V
b10101001 (
b10101001 G
b10101001 t
b1 F
b1 S
0:
0B
1J
1e
0d
b11 O
b11 `
1*
#108000
0*
#109000
12
19
1f
0e
b100 O
b100 `
1*
#110000
0*
#111000
1#
b1100 w
b101010010 0
b101010010 o
b10111111110000000000000000110100 <
b10111111110000000000000000110100 j
b10101001 F
b10101001 S
b10111111110000000000000000110000 (
b10111111110000000000000000110000 G
b10111111110000000000000000110000 t
1:
02
1&
0J
09
0f
1g
b101010010 I
b101010010 V
b10111111110000000000000000110100 H
b10111111110000000000000000110100 R
b10101001 8
b10101001 U
b10101001 r
b10101001 !
b10101001 -
b10101001 v
b10101001 7
b10101001 q
b1 O
b1 `
b10111111110000000000000000110000 ;
b10111111110000000000000000110000 Q
b10111111110000000000000000110000 k
b10101001 $
b10101001 4
b10101001 n
1*
#112000
0*
#113000
0#
b0 %
b0 6
b0 x
1*
#114000
0*
#115000
b0 0
b0 o
1.
b0 /
b0 p
b0 F
b0 S
b0 I
b0 V
b10111111110000000000000000110000 H
b10111111110000000000000000110000 R
b0 8
b0 U
b0 r
b0 !
b0 -
b0 v
b0 7
b0 q
b0 1
b0 P
b1111 [
b0 l
b0 m
b0 D
b0 X
b0 W
b0 >
b0 ]
b0 ^
b0 _
b0 C
1B
0&
1d
0g
b10 O
b10 `
1*
#116000
0*
#117000
b1 0
b1 o
b0 w
0.
b1 I
b1 V
b1 (
b1 G
b1 t
b1000 L
b1000 T
b1000 Z
0:
0B
15
b1000 K
b1000 Y
b1000 a
1e
0d
b11 O
b11 `
b0 N
1*
#118000
0*
#119000
19
1f
0e
b100 O
b100 `
1*
#120000
0*
#121000
1#
b0 0
b0 o
b1101 w
b10111111110000000000000000111000 <
b10111111110000000000000000111000 j
1.
b0 I
b0 V
b10111111110000000000000000110100 (
b10111111110000000000000000110100 G
b10111111110000000000000000110100 t
b10 L
b10 T
b10 Z
b10111111110000000000000000110100 H
b10111111110000000000000000110100 R
1:
05
1&
b0 K
b0 Y
b0 a
09
0f
1g
b10111111110000000000000000110100 ;
b10111111110000000000000000110100 Q
b10111111110000000000000000110100 k
b1 O
b1 `
1*
#122000
0*
#123000
0#
1*
#124000
0*
#125000
1B
0&
1d
0g
b10 O
b10 `
1*
#126000
0*
#127000
b1 0
b1 o
b0 w
0.
b1 I
b1 V
b1 (
b1 G
b1 t
b1000 L
b1000 T
b1000 Z
0:
0B
15
b1000 K
b1000 Y
b1000 a
1e
0d
b11 O
b11 `
1*
#128000
0*
#129000
19
1f
0e
b100 O
b100 `
1*
#130000
0*
#131000
1#
b0 0
b0 o
b1110 w
1.
b0 I
b0 V
b10111111110000000000000000111100 <
b10111111110000000000000000111100 j
b10111111110000000000000000111000 (
b10111111110000000000000000111000 G
b10111111110000000000000000111000 t
b10 L
b10 T
b10 Z
1:
05
1&
b0 K
b0 Y
b0 a
09
0f
1g
b10111111110000000000000000111000 H
b10111111110000000000000000111000 R
b1 O
b1 `
b10111111110000000000000000111000 ;
b10111111110000000000000000111000 Q
b10111111110000000000000000111000 k
1*
#132000
0*
#133000
0#
1*
#134000
0*
#135000
1B
0&
1d
0g
b10 O
b10 `
1*
#136000
0*
#137000
b1 0
b1 o
b0 w
0.
b1 I
b1 V
b1 (
b1 G
b1 t
b1000 L
b1000 T
b1000 Z
0:
0B
15
b1000 K
b1000 Y
b1000 a
1e
0d
b11 O
b11 `
1*
#138000
0*
#139000
19
1f
0e
b100 O
b100 `
1*
#140000
0*
#141000
1#
b0 0
b0 o
b1111 w
b10111111110000000000000001000000 <
b10111111110000000000000001000000 j
1.
b0 I
b0 V
b10111111110000000000000000111100 (
b10111111110000000000000000111100 G
b10111111110000000000000000111100 t
b10 L
b10 T
b10 Z
b10111111110000000000000000111100 H
b10111111110000000000000000111100 R
1:
05
1&
b0 K
b0 Y
b0 a
09
0f
1g
b10111111110000000000000000111100 ;
b10111111110000000000000000111100 Q
b10111111110000000000000000111100 k
b1 O
b1 `
1*
#142000
0*
#143000
0#
1*
#144000
0*
#145000
1B
0&
1d
0g
b10 O
b10 `
1*
#146000
0*
#147000
b1 0
b1 o
b0 w
0.
b1 I
b1 V
b1 (
b1 G
b1 t
b1000 L
b1000 T
b1000 Z
0:
0B
15
b1000 K
b1000 Y
b1000 a
1e
0d
b11 O
b11 `
1*
#148000
0*
#149000
19
1f
0e
b100 O
b100 `
1*
#150000
0*
#151000
1#
b0 0
b0 o
b10000 w
1.
b0 I
b0 V
b10111111110000000000000001000100 <
b10111111110000000000000001000100 j
b10111111110000000000000001000000 (
b10111111110000000000000001000000 G
b10111111110000000000000001000000 t
b10 L
b10 T
b10 Z
1:
05
1&
b0 K
b0 Y
b0 a
09
0f
1g
b10111111110000000000000001000000 H
b10111111110000000000000001000000 R
b1 O
b1 `
b10111111110000000000000001000000 ;
b10111111110000000000000001000000 Q
b10111111110000000000000001000000 k
1*
#152000
0*
#153000
0#
1*
#154000
0*
#155000
1B
0&
1d
0g
b10 O
b10 `
1*
#156000
0*
#157000
b1 0
b1 o
b0 w
0.
b1 I
b1 V
b1 (
b1 G
b1 t
b1000 L
b1000 T
b1000 Z
0:
0B
15
b1000 K
b1000 Y
b1000 a
1e
0d
b11 O
b11 `
1*
#158000
0*
#159000
19
1f
0e
b100 O
b100 `
1*
#160000
0*
#161000
1#
b0 0
b0 o
b10001 w
b10111111110000000000000001001000 <
b10111111110000000000000001001000 j
1.
b0 I
b0 V
b10111111110000000000000001000100 (
b10111111110000000000000001000100 G
b10111111110000000000000001000100 t
b10 L
b10 T
b10 Z
b10111111110000000000000001000100 H
b10111111110000000000000001000100 R
1:
05
1&
b0 K
b0 Y
b0 a
09
0f
1g
b10111111110000000000000001000100 ;
b10111111110000000000000001000100 Q
b10111111110000000000000001000100 k
b1 O
b1 `
1*
#162000
0*
#163000
0#
1*
#164000
0*
#165000
1B
0&
1d
0g
b10 O
b10 `
1*
#166000
0*
#167000
b1 0
b1 o
b0 w
0.
b1 I
b1 V
b1 (
b1 G
b1 t
b1000 L
b1000 T
b1000 Z
0:
0B
15
b1000 K
b1000 Y
b1000 a
1e
0d
b11 O
b11 `
1*
#168000
0*
#169000
19
1f
0e
b100 O
b100 `
1*
#170000
0*
#171000
1#
b0 0
b0 o
b10010 w
1.
b0 I
b0 V
b10111111110000000000000001001100 <
b10111111110000000000000001001100 j
b10111111110000000000000001001000 (
b10111111110000000000000001001000 G
b10111111110000000000000001001000 t
b10 L
b10 T
b10 Z
1:
05
1&
b0 K
b0 Y
b0 a
09
0f
1g
b10111111110000000000000001001000 H
b10111111110000000000000001001000 R
b1 O
b1 `
b10111111110000000000000001001000 ;
b10111111110000000000000001001000 Q
b10111111110000000000000001001000 k
1*
#172000
0*
#173000
0#
1*
#174000
0*
#175000
1B
0&
1d
0g
b10 O
b10 `
1*
#176000
0*
#177000
b1 0
b1 o
b0 w
0.
b1 I
b1 V
b1 (
b1 G
b1 t
b1000 L
b1000 T
b1000 Z
0:
0B
15
b1000 K
b1000 Y
b1000 a
1e
0d
b11 O
b11 `
1*
#178000
0*
#179000
19
1f
0e
b100 O
b100 `
1*
#180000
0*
#181000
1#
b0 0
b0 o
b10011 w
b10111111110000000000000001010000 <
b10111111110000000000000001010000 j
1.
b0 I
b0 V
b10111111110000000000000001001100 (
b10111111110000000000000001001100 G
b10111111110000000000000001001100 t
b10 L
b10 T
b10 Z
b10111111110000000000000001001100 H
b10111111110000000000000001001100 R
1:
05
1&
b0 K
b0 Y
b0 a
09
0f
1g
b10111111110000000000000001001100 ;
b10111111110000000000000001001100 Q
b10111111110000000000000001001100 k
b1 O
b1 `
1*
#182000
0*
#183000
0#
1*
#184000
0*
#185000
1B
0&
1d
0g
b10 O
b10 `
1*
#186000
0*
#187000
b1 0
b1 o
b0 w
0.
b1 I
b1 V
b1 (
b1 G
b1 t
b1000 L
b1000 T
b1000 Z
0:
0B
15
b1000 K
b1000 Y
b1000 a
1e
0d
b11 O
b11 `
1*
#188000
0*
#189000
19
1f
0e
b100 O
b100 `
1*
#190000
0*
#191000
1#
b0 0
b0 o
b10100 w
1.
b0 I
b0 V
b10111111110000000000000001010100 <
b10111111110000000000000001010100 j
b10111111110000000000000001010000 (
b10111111110000000000000001010000 G
b10111111110000000000000001010000 t
b10 L
b10 T
b10 Z
1:
05
1&
b0 K
b0 Y
b0 a
09
0f
1g
b10111111110000000000000001010000 H
b10111111110000000000000001010000 R
b1 O
b1 `
b10111111110000000000000001010000 ;
b10111111110000000000000001010000 Q
b10111111110000000000000001010000 k
1*
#192000
0*
#193000
0#
1*
#194000
0*
#195000
1B
0&
1d
0g
b10 O
b10 `
1*
#196000
0*
#197000
b1 0
b1 o
b0 w
0.
b1 I
b1 V
b1 (
b1 G
b1 t
b1000 L
b1000 T
b1000 Z
0:
0B
15
b1000 K
b1000 Y
b1000 a
1e
0d
b11 O
b11 `
1*
#198000
0*
#199000
19
1f
0e
b100 O
b100 `
1*
#200000
0*
